asgiref==3.8.0
certifi==2024.2.2
charset-normalizer==3.3.2
crispy-bootstrap4==2024.1
defusedxml==0.7.1
Django==5.0.3
django-bootstrap-icons==0.8.7
django-crispy-forms==2.1
django-crontab==0.7.1
django-jalali-date==1.1.0
django-widget-tweaks==1.5.0
idna==3.6
jalali_core==1.0.0
jdatetime==5.0.0
pillow==10.2.0
requests==2.31.0
sqlparse==0.4.4
typing_extensions==4.10.0
urllib3==2.2.1
